{
	"index": "login.html",
	"content": {
		"public": "ui"
	},
	"host": "http://localhost",
	"port": 9001,
    "db": "finance.db",
	"memcached": {
		"enabled": false,
		"hosts": [ "127.0.0.1:11211" ],
		"secret": "EtY3NhQpHdQJwBPX"
	}
}